<svg xmlns="http://www.w3.org/2000/svg" width="48" height="48" viewBox="0 0 48 48">
    <path fill="#1075B9" fill-rule="evenodd" d="M17.781 30.655l6.74-6.74 6.725 6.726a1 1 0 0 0 1.32.083l.094-.083.707-.707a1 1 0 0 0 0-1.414l-8.131-8.132a1 1 0 0 0-1.132-.199c-.113.05-.22.12-.312.213l-8.132 8.132a1 1 0 0 0 0 1.414l.707.707a1 1 0 0 0 1.414 0z"/>
</svg>
